DATA 607 - Project 2
…
Since this exists as Excel, we will use the readxl package from the Tidyverse to assist in the loading of the data.

library(readxl)

Unfortunately, readxl does not yet work with URLs, so we load the data from a local file. Using the read_excel function, this is quite easy to do.

# Load the proper sheet and only the cell range we want
UN <- read_excel("UN_MigrantStockByOriginAndDestination_2017.xlsx",
           sheet="Table 1",
           range="A16:IG1906")

# Display the data
UN

## # A tibble: 1,890 x 241
##     X__1    X__2 X__3  X__4   X__5 X__6  Total `Other North` `Other South`
##    <dbl>   <dbl> <chr> <chr> <dbl> <chr> <chr> <chr>         <chr>        
##  1  1990 1990014 Buru <NA>    108 B R   3331 8943          50676        
##  2  1990 1990015 Como <NA>    174 B     14079 672           847          
##  3  1990 1990016 Djib <NA>    262 B R   1222 1827          5484         
##  4  1990 1990017 Erit <NA>    232 I     11848 345           737          
##  5  1990 1990018 Ethi <NA>    231 B R   1155 7358          22075        
##  6  1990 1990019 Kenya <NA>    404 B R   2972 35132         65430        
##  7  1990 1990020 Mada <NA>    450 C     23917 3563          2851         
##  8  1990 1990021 Mala <NA>    454 B R   1127 11744         19158        
##  9  1990 1990022 Maur 1       480 C     3613  75            292          
## 10  1990 1990023 Mayo <NA>    175 B     15229 1142          1354         
## # ... with 1,880 more rows, and 232 more variables: Afghanistan <chr>,
## #   Albania <chr>, Algeria <chr>, `American Samoa` <chr>, Andorra <chr>,
## #   Angola <chr>, Anguilla <chr>, `Antigua and Barbuda` <chr>,
## #   Argentina <chr>, Armenia <chr>, Aruba <chr>, Australia <chr>,
## #   Austria <chr>, Azerbaijan <chr>, Bahamas <chr>, Bahrain <chr>,
## #   Bangladesh <chr>, Barbados <chr>, Belarus <chr>, Belgium <chr>,
## #   Belize <chr>, Benin <chr>, Bermuda <chr>, Bhutan <chr>, `Bolivia
## #   (Plurinational State of)` <chr>, `Bosnia and Herzegovina` <chr>,
## #   Botswana <chr>, Brazil <chr>, `British Virgin Islands` <chr>, `Brunei
…
Tidying

The next piece we tackle is the fact that we have observations (source countries) saved as individual variables. We can use the gather function from tidyr to fix this:

# This creates a new column called "source" from the column headers
#   and puts the values into a "people" column, effectively gathering
#   the data into a longer (rather than wider) format

tidyUN <- UN %>% gather(key = "source", value="people", 7:241)

# Select a subset to see how the data looks now
tidyUN %>% filter(destination == "France", year == 2017)

## # A tibble: 235 x 8
##     year    sort destination notes  code typeOfData source         people 
##    <dbl>   <dbl> <chr>       <chr> <dbl> <chr>      <chr>          <chr>  
##  1  2017 2017178 France      <NA>    250 B          Total          7902783
##  2  2017 2017178 France      <NA>    250 B          Other North    ..     
##  3  2017 2017178 France      <NA>    250 B          Other South    ..     
##  4  2017 2017178 France      <NA>    250 B          Afghanistan    4832   
##  5  2017 2017178 France      <NA>    250 B          Albania        6796   
##  6  2017 2017178 France      <NA>    250 B          Algeria        1452409
##  7  2017 2017178 France      <NA>    250 B          American Samoa 2      
##  8  2017 2017178 France      <NA>    250 B          Andorra        996    
##  9  2017 2017178 France      <NA>    250 B          Angola         21610  
## 10  2017 2017178 France      <NA>    250 B          Anguilla       9      
## # ... with 225 more rows
…
Example 2

The next example is taken from the Department of Educations National Student Loan Data System (NSLDS)3. The specific file is a portfolio summary showing outstanding interest and balances by acedemic year and loan type.

Raw Data

The raw data is in a table inside an Excel document. So, we will use the readxl package like before.

loan <- read_excel("PortfolioSummary.xls")

loan

## # A tibble: 39 x 10
##    `Federal Student X__1  X__2  X__3  X__4  X__5  X__6  X__7  X__8  X__9 
##    <chr>             <chr> <chr> <chr> <chr> <chr> <chr> <chr> <chr> <chr>
##  1 Includes outstan <NA>  <NA>  <NA>  <NA>  <NA>  <NA>  <NA>  <NA>  <NA> 
##  2 Data Source: Nat <NA>  <NA>  <NA>  <NA>  <NA>  <NA>  <NA>  <NA>  <NA> 
##  3 <NA>              <NA>  <NA>  <NA>  <NA>  <NA>  <NA>  <NA>  <NA>  <NA> 
##  4 <NA>              <NA>  Dire <NA>  Fede <NA>  Perk <NA>  Tota <NA> 
##  5 Federal Fiscal Y <NA>  Doll Reci Doll Reci Doll Reci Doll Undu
##  6 2007              <NA>  106.8 7     401. 22.6 8.19 2.79 516   28.3
##  7 2008              <NA>  122.5 7.70 446.5 23.6 8.5   2.89 577   29.8
##  8 2009              <NA>  154. 9.19 493. 25    8.69 3     657   32.1
##  9 2010              <NA>  224.5 14.4  516. 25.1 8.40 2.89 749. 34.2
## 10 2011              <NA>  350. 19.3 489. 23.8 8.30 2.89 848. 36.5 
## # ... with 29 more rows
…
# The next 2 lines are column headers and redundant
loan <- loan[-(1:2),]

# If we look at the end of the data, there are more unnecessary rows
#   left over from the Excel file.
loan <- head(loan,-5)

loan

## # A tibble: 29 x 10
##    year  period `Direct Loan Dollar `Direct Loan Reci `FFEL Dollars Out
##    <chr> <chr>  <chr>                <chr>              <chr>             
##  1 2007  <NA>   106.8                7                  401.89999999999998
##  2 2008  <NA>   122.5                7.7000000000000002 446.5             
##  3 2009  <NA>   154.90000000000001   9.1999999999999993 493.30000000000001
##  4 2010  <NA>   224.5                14.4               516.70000000000005
##  5 2011  <NA>   350.10000000000002   19.399999999999999 489.80000000000001
##  6 2012  <NA>   488.30000000000001   22.800000000000001 451.69999999999999
##  7 2013  Q1     508.69999999999999   23.399999999999999 444.89999999999998
##  8 <NA>  Q2     553                  24.100000000000001 437               
##  9 <NA>  Q3     569.20000000000005   24.300000000000001 429.5             
## 10 <NA>  Q4     609.10000000000002   25.600000000000001 423               
## # ... with 19 more rows, and 5 more variables: `FFEL Loan
## #   Recipients` <chr>, `Perkins Loan Dollars Outstanding` <chr>, `Perkins
## #   Loan Recipients` <chr>, `Total Dollars Outstanding` <chr>, `Total
## #   Recipients` <chr>
Now our data frame looks more complete now.

Tidying

We have a few issues outstanding with the data before we can call it tidy. First, we are missing some data in the year and period columns.

# Fill in years
loan <- fill(loan,year)

# Missing periods are for the whole year
loan[(is.na(loan$period)),2] <- "YR"

loan

## # A tibble: 29 x 10
##    year  period `Direct Loan Dollar `Direct Loan Reci `FFEL Dollars Out
##    <chr> <chr>  <chr>                <chr>              <chr>             
##  1 2007  YR     106.8                7                  401.89999999999998
##  2 2008  YR     122.5                7.7000000000000002 446.5             
##  3 2009  YR     154.90000000000001   9.1999999999999993 493.30000000000001
##  4 2010  YR     224.5                14.4               516.70000000000005
##  5 2011  YR     350.10000000000002   19.399999999999999 489.80000000000001
##  6 2012  YR     488.30000000000001   22.800000000000001 451.69999999999999
##  7 2013  Q1     508.69999999999999   23.399999999999999 444.89999999999998
##  8 2013  Q2     553                  24.100000000000001 437               
##  9 2013  Q3     569.20000000000005   24.300000000000001 429.5             
## 10 2013  Q4     609.10000000000002   25.600000000000001 423               
## # ... with 19 more rows, and 5 more variables: `FFEL Loan
## #   Recipients` <chr>, `Perkins Loan Dollars Outstanding` <chr>, `Perkins
## #   Loan Recipients` <chr>, `Total Dollars Outstanding` <chr>, `Total
## #   Recipients` <chr>
…
# Then spread those into their respective columns
tidyLoan <- tidyLoan %>% spread(measure, amount)

# Finally, fix column names and column types
tidyLoan <- rename(tidyLoan, dollars = `Dollars Outstanding`, recipients = Recipients)

tidyLoan$dollars <- as.numeric(tidyLoan$dollars)

tidyLoan$recipients <- as.numeric(tidyLoan$recipients)

tidyLoan

## # A tibble: 116 x 5
##    year  period loanType dollars recipients
##    <chr> <chr>  <chr>      <dbl>      <dbl>
##  1 2007  YR     Direct     107.         7  
##  2 2007  YR     FFEL       402.        22.6
##  3 2007  YR     Perkins      8.2        2.8
##  4 2007  YR     Total      516         28.3
##  5 2008  YR     Direct     122.         7.7
##  6 2008  YR     FFEL       446.        23.7
##  7 2008  YR     Perkins      8.5        2.9
##  8 2008  YR     Total      577         29.9
##  9 2009  YR     Direct     155.         9.2
## 10 2009  YR     FFEL       493.        25  
## # ... with 106 more rows
…
Looking at these graphs, it appears that there is more outstanding balance over time than can be explained by simply having more students. One may conclude that there is another variable at work here, perhaps cost of education is rising? Further analysis would be required to confirm or deny that.

Example 3

This final example comes from the NYS Data website 4 and is a list of Supplemental Nutrition Assistance Program (SNAP) caseloads and expenditures. This program, previously referred to as food stamps is an important safety net low-income families and children.

Raw Data

Because we have the data in a CSV format, we can pull it directly from GitHub:

SNAP <- read_csv(url("https://raw.githubusercontent.com/lysanthus/Data607/master/Project2/SNAP.csv"),col_names = TRUE)

SNAP

## # A tibble: 11,542 x 14
##     Year Month  `Month Code` `District Code` District   `Total SNAP House
##    <int> <chr>         <int>           <int> <chr>                   <int>
##  1  2002 Janua            1               1 Albany                   8598
##  2  2002 Janua            1               2 Allegany                 1812
##  3  2002 Janua            1               3 Broome                   6000
##  4  2002 Janua            1               4 Cattaraug               3041
##  5  2002 Janua            1               5 Cayuga                   2159
##  6  2002 Janua            1               6 Chautauqua               5523
##  7  2002 Janua            1               7 Chemung                  2702
##  8  2002 Janua            1               8 Chenango                 1704
##  9  2002 Janua            1               9 Clinton                  2945
## 10  2002 Janua            1              10 Columbia                 1365
## # ... with 11,532 more rows, and 8 more variables: `Total SNAP
## #   Persons` <int>, `Total SNAP Benefits` <int>, `Temporary Assistance
## #   SNAP Households` <int>, `Temporary Assistance SNAP Persons` <int>,
## #   `Temporary Assistance SNAP Benefits` <int>, `Non-Temporary Assistance
## #   SNAP Households` <int>, `Non-Temporary Assistance SNAP Persons` <int>,
## #   `Non-Temporary Assistance SNAP Benefits` <int>
…
# Get the word "Assistance" out so we normalize the names
tidySNAP$type <- str_replace(tidySNAP$type,"\\s{1}(Assistance)","")

# Now split the "type" column, because it really contains two variable types
tidySNAP <- 
  tidySNAP %>%
  extract(type, c("benefitType", "measure"),"([-[:alpha:]]+)\\s{1}(.+)")

# Then spread those into their respective columns
tidySNAP <- tidySNAP %>% spread(measure, amount)

tidySNAP

## # A tibble: 34,626 x 9
##     Year Month `Month Code` `District Code` District  benefitType Benefits
##    <int> <chr>        <int>           <int> <chr>     <chr>          <int>
##  1  2002 April            4               1 Albany    Non-Tempor   671390
##  2  2002 April            4               1 Albany    Temporary     767340
##  3  2002 April            4               1 Albany    Total        1438730
##  4  2002 April            4               2 Allegany  Non-Tempor   159474
##  5  2002 April            4               2 Allegany  Temporary     113401
##  6  2002 April            4               2 Allegany  Total         272875
##  7  2002 April            4               3 Broome    Non-Tempor   529332
##  8  2002 April            4               3 Broome    Temporary     446036
##  9  2002 April            4               3 Broome    Total         975368
## 10  2002 April            4               4 Cattarau Non-Tempor   297399
## # ... with 34,616 more rows, and 2 more variables: Households <int>,
## #   Persons <int>
…
